INDEX VERSION 1.127+C:\Users\dchubarov\Dropbox\Compass\Спортивное\Java\.metadata\.plugins\org.eclipse.jdt.core
1995173708.index
4155206848.index
1299022128.index
1697886153.index
1747620122.index
1498219845.index
3065916431.index
163172794.index
4041092966.index
1115467115.index
3974580528.index
3133528496.index
30765161.index
305854171.index
4108727661.index
