^C:\USERS\DCHUBAROV\DROPBOX\COMPASS\VISUALSTUDIO\SAMLPE\SAMPLE\STDAFX.CPP
C:\USERS\DCHUBAROV\DROPBOX\COMPASS\VISUALSTUDIO\SAMLPE\SAMPLE\DEBUG\SAMPLE.PCH
C:\USERS\DCHUBAROV\DROPBOX\COMPASS\VISUALSTUDIO\SAMLPE\SAMPLE\DEBUG\STDAFX.OBJ
C:\USERS\DCHUBAROV\DROPBOX\COMPASS\VISUALSTUDIO\SAMLPE\SAMPLE\DEBUG\VC110.PDB
^C:\USERS\DCHUBAROV\DROPBOX\COMPASS\VISUALSTUDIO\SAMLPE\SAMPLE\SAMPLE.CPP
C:\USERS\DCHUBAROV\DROPBOX\COMPASS\VISUALSTUDIO\SAMLPE\SAMPLE\DEBUG\SAMPLE.OBJ
C:\USERS\DCHUBAROV\DROPBOX\COMPASS\VISUALSTUDIO\SAMLPE\SAMPLE\DEBUG\VC110.PDB
